name: Masternode
description: ''
endpoints:
  -
    httpMethods:
      - GET
    uri: v1/masternode
    metadata:
      title: 'active Masternodes (paginated)'
      description: 'Get all active masternodes, including the states ENABLED and PRE_ENABLED, 1000 elements max on each page.'
      authenticated: false
    headers:
      Content-Type: application/json
      Accept: application/json
    urlParameters: []
    queryParameters:
      stats:
        name: stats
        description: 'Get additional statistics. Default: true'
        required: false
        example: true
        type: boolean
      wtf:
        name: wtf
        description: 'Get explainations for all returned values. Default: <code>false</code>'
        required: false
        example: true
        type: boolean
    bodyParameters: []
    responses:
      -
        status: 200
        content: |
          {
              "data": [
                  {
                      "masternodeId": "000cfd30703095554cbe369a60f5089b62bbee9442e11c8b5d769881bf535c1d",
                      "ownerAddress": "8MPzdvvBrZ4SLjy5Ymq37wKxYftECKjWa3",
                      "operatorAddress": "8e5qNykXzVqmSpTypDZynMQrkj5U3N59XD",
                      "state": "ENABLED",
                      "mintedBlocks": 68,
                      "timelock": null,
                      "targetMultiplier": [
                          10,
                          8
                      ],
                      "creationHeight": 684270,
                      "resignHeight": -1,
                      "resignTx": null,
                      "banTx": null
                  }
              ],
              "stats": {
                  "masternode_count": 19121,
                  "enabled_count": 9224,
                  "pre_enabled_count": 1,
                  "resigned_count": 9896,
                  "pre_resigned_count": 0,
                  "freezer": {
                      "unfrozen": 17366,
                      "5_year": 132,
                      "10_year": 1623
                  }
              },
              "wtf": {
                  "masternodeId": "The DeFiChain's internal unique identifier for this masternode. It consists of 65 hexadecimal characters (0..8, a..f)",
                  "ownerAddress": "A legacy address holding the masternode's collateral of 20,000 DFI. It consists of 35 latin and numeric characters(0..9, a..z, A..Z)",
                  "operatorAddress": "A legacy address, used for the masternode's operator. Typically living in the wallet of the DeFiChain node, running the minting activity of this masternode.",
                  "state": "Contains the masternode's states. Possible values: ENABLED, PRE-ENABLED, RESIGNED, PRE-RESIGNED, BANNED",
                  "mintedBlocks": "Integer value of the amount of blocks this Masternode has minted so far.",
                  "timelock": "A string telling this masternode's freezing time. Possible values: \"\", \"5-year\", \"10-year\"",
                  "targetMultiplier": "An array of integer values. Contains 2, 3 or 4 values, depending on this masternode's timelock",
                  "creationHeight": "The block height when this masternode has been created. Integer value.",
                  "resignHeight": "The block height when this masternode has been resigned. Integer value.",
                  "resignTx": "Transaction ID of the masternode's collateral payout after it has finally been resigned. It consists of 65 hexadecimal characters (0..8, a..f)",
                  "banTx": "Transaction ID of the masternode's collateral payout after it has been banned. It consists of 65 hexadecimal characters (0..8, a..f)"
              },
              "links": {
                  "first": "http://defichain-api.test/v1/masternode?page=1",
                  "last": "http://defichain-api.test/v1/masternode?page=9225",
                  "prev": null,
                  "next": "http://defichain-api.test/v1/masternode?page=2"
              },
              "meta": {
                  "current_page": 1,
                  "from": 1,
                  "last_page": 9225,
                  "path": "http://defichain-api.test/v1/masternode",
                  "per_page": 1,
                  "to": 1,
                  "total": 9225
              }
          }
        headers: []
        description: '200'
    responseFields: []
  -
    httpMethods:
      - GET
    uri: 'v1/masternode/{state}'
    metadata:
      title: 'Masternodes with requested state (paginated)'
      description: |-
        Get all masternodes with the requested state, 1000 elements max on each page.
        <aside class="notice">possible states are <code>ENABLED, PRE_ENABLED, RESIGNED,
        PRE_RESIGNED and BANNED</code>.</aside>
      authenticated: false
    headers:
      Content-Type: application/json
      Accept: application/json
    urlParameters:
      state:
        name: state
        description: 'Select all masternodes with the given state.'
        required: true
        example: resigned
        type: string
    queryParameters:
      stats:
        name: stats
        description: 'Get additional statistics. Default: <code>true</code>'
        required: false
        example: true
        type: boolean
      wtf:
        name: wtf
        description: 'Get explainations for all returned values. Default: <code>false</code>'
        required: false
        example: true
        type: boolean
    bodyParameters: []
    responses:
      -
        status: 200
        content: |
          {
              "data": [
                  {
                      "masternodeId": "b70f5273b64b1e48066a4a50d0e51de3cc883ddf96cbb1bb1999c073ed0af331",
                      "ownerAddress": "8RvqxbyS9yu2nEX6x28VexySd2WRNp22dn",
                      "operatorAddress": "8MU9MhdMBNmY4rWi2krWFjBLwRnDdTFfMt",
                      "state": "PRE_ENABLED",
                      "mintedBlocks": 0,
                      "timelock": null,
                      "targetMultiplier": [

                      ],
                      "creationHeight": 1272000,
                      "resignHeight": -1,
                      "resignTx": null,
                      "banTx": null
                  }
              ],
              "stats": {
                  "masternode_count": 19121,
                  "enabled_count": 9224,
                  "pre_enabled_count": 1,
                  "resigned_count": 9896,
                  "pre_resigned_count": 0,
                  "freezer": {
                      "unfrozen": 7470,
                      "5_year": 132,
                      "10_year": 1623
                  }
              },
              "links": {
                  "first": "http://defichain-api.test/v1/masternode/pre_enabled?page=1",
                  "last": "http://defichain-api.test/v1/masternode/pre_enabled?page=1",
                  "prev": null,
                  "next": null
              },
              "meta": {
                  "current_page": 1,
                  "from": 1,
                  "last_page": 1,
                  "path": "http://defichain-api.test/v1/masternode/pre_enabled",
                  "per_page": 1,
                  "to": 1,
                  "total": 1
              }
          }
        headers: []
        description: '200'
    responseFields: []
  -
    httpMethods:
      - GET
    uri: v1/masternode/with_inactive
    metadata:
      title: 'active Masternodes (paginated)'
      description: 'Get all active masternodes, including the states ENABLED, PRE_ENABLED, RESIGNED, PRE_RESIGNED and BANNED'
      authenticated: false
    headers:
      Content-Type: application/json
      Accept: application/json
    urlParameters: []
    queryParameters:
      stats:
        name: stats
        description: 'Get additional statistics. Default: <code>true</code>'
        required: false
        example: true
        type: boolean
      wtf:
        name: wtf
        description: 'Get explainations for all returned values. Default: <code>false</code>'
        required: false
        example: true
        type: boolean
    bodyParameters: []
    responses:
      -
        status: 200
        content: |
          {
              "data": [
                  {
                      "masternodeId": "000cfd30703095554cbe369a60f5089b62bbee9442e11c8b5d769881bf535c1d",
                      "ownerAddress": "8MPzdvvBrZ4SLjy5Ymq37wKxYftECKjWa3",
                      "operatorAddress": "8e5qNykXzVqmSpTypDZynMQrkj5U3N59XD",
                      "state": "ENABLED",
                      "mintedBlocks": 68,
                      "timelock": null,
                      "targetMultiplier": [
                          10,
                          8
                      ],
                      "creationHeight": 684270,
                      "resignHeight": -1,
                      "resignTx": null,
                      "banTx": null
                  }
              ],
              "stats": {
                  "masternode_count": 19121,
                  "enabled_count": 9224,
                  "pre_enabled_count": 1,
                  "resigned_count": 9896,
                  "pre_resigned_count": 0,
                  "freezer": {
                      "unfrozen": 17366,
                      "5_year": 132,
                      "10_year": 1623
                  }
              },
              "wtf": {
                  "masternodeId": "The DeFiChain's internal unique identifier for this masternode. It consists of 65 hexadecimal characters (0..8, a..f)",
                  "ownerAddress": "A legacy address holding the masternode's collateral of 20,000 DFI. It consists of 35 latin and numeric characters(0..9, a..z, A..Z)",
                  "operatorAddress": "A legacy address, used for the masternode's operator. Typically living in the wallet of the DeFiChain node, running the minting activity of this masternode.",
                  "state": "Contains the masternode's states. Possible values: ENABLED, PRE-ENABLED, RESIGNED, PRE-RESIGNED, BANNED",
                  "mintedBlocks": "Integer value of the amount of blocks this Masternode has minted so far.",
                  "timelock": "A string telling this masternode's freezing time. Possible values: \"\", \"5-year\", \"10-year\"",
                  "targetMultiplier": "An array of integer values. Contains 2, 3 or 4 values, depending on this masternode's timelock",
                  "creationHeight": "The block height when this masternode has been created. Integer value.",
                  "resignHeight": "The block height when this masternode has been resigned. Integer value.",
                  "resignTx": "Transaction ID of the masternode's collateral payout after it has finally been resigned. It consists of 65 hexadecimal characters (0..8, a..f)",
                  "banTx": "Transaction ID of the masternode's collateral payout after it has been banned. It consists of 65 hexadecimal characters (0..8, a..f)"
              },
              "links": {
                  "first": "http://defichain-api.test/v1/masternode?page=1",
                  "last": "http://defichain-api.test/v1/masternode?page=9225",
                  "prev": null,
                  "next": "http://defichain-api.test/v1/masternode?page=2"
              },
              "meta": {
                  "current_page": 1,
                  "from": 1,
                  "last_page": 9225,
                  "path": "http://defichain-api.test/v1/masternode",
                  "per_page": 1,
                  "to": 1,
                  "total": 9225
              }
          }
        headers: []
        description: '200'
    responseFields: []
  -
    httpMethods:
      - GET
    uri: v1/masternode/all
    metadata:
      title: 'all active Masternodes'
      description: |-
        Get all active masternodes, including the states ENABLED and PRE_ENABLED.
        <aside class="warning">This request receives a big payload!</aside>
      authenticated: false
    headers:
      Content-Type: application/json
      Accept: application/json
    urlParameters: []
    queryParameters:
      stats:
        name: stats
        description: 'Get additional statistics. Default: true'
        required: false
        example: true
        type: boolean
      wtf:
        name: wtf
        description: 'Get explainations for all returned values. Default: <code>false</code>'
        required: false
        example: true
        type: boolean
    bodyParameters: []
    responses:
      -
        status: 200
        content: |
          {
              "data": [
                  {
                      "masternodeId": "000cfd30703095554cbe369a60f5089b62bbee9442e11c8b5d769881bf535c1d",
                      "ownerAddress": "8MPzdvvBrZ4SLjy5Ymq37wKxYftECKjWa3",
                      "operatorAddress": "8e5qNykXzVqmSpTypDZynMQrkj5U3N59XD",
                      "state": "ENABLED",
                      "mintedBlocks": 68,
                      "timelock": null,
                      "targetMultiplier": [
                          10,
                          8
                      ],
                      "creationHeight": 684270,
                      "resignHeight": -1,
                      "resignTx": null,
                      "banTx": null
                  }
              ],
              "stats": {
                  "masternode_count": 19121,
                  "enabled_count": 9224,
                  "pre_enabled_count": 1,
                  "resigned_count": 9896,
                  "pre_resigned_count": 0,
                  "freezer": {
                      "unfrozen": 17366,
                      "5_year": 132,
                      "10_year": 1623
                  }
              },
              "wtf": {
                  "masternodeId": "The DeFiChain's internal unique identifier for this masternode. It consists of 65 hexadecimal characters (0..8, a..f)",
                  "ownerAddress": "A legacy address holding the masternode's collateral of 20,000 DFI. It consists of 35 latin and numeric characters(0..9, a..z, A..Z)",
                  "operatorAddress": "A legacy address, used for the masternode's operator. Typically living in the wallet of the DeFiChain node, running the minting activity of this masternode.",
                  "state": "Contains the masternode's states. Possible values: ENABLED, PRE-ENABLED, RESIGNED, PRE-RESIGNED, BANNED",
                  "mintedBlocks": "Integer value of the amount of blocks this Masternode has minted so far.",
                  "timelock": "A string telling this masternode's freezing time. Possible values: \"\", \"5-year\", \"10-year\"",
                  "targetMultiplier": "An array of integer values. Contains 2, 3 or 4 values, depending on this masternode's timelock",
                  "creationHeight": "The block height when this masternode has been created. Integer value.",
                  "resignHeight": "The block height when this masternode has been resigned. Integer value.",
                  "resignTx": "Transaction ID of the masternode's collateral payout after it has finally been resigned. It consists of 65 hexadecimal characters (0..8, a..f)",
                  "banTx": "Transaction ID of the masternode's collateral payout after it has been banned. It consists of 65 hexadecimal characters (0..8, a..f)"
              },
              "links": {
                  "first": "http://defichain-api.test/v1/masternode?page=1",
                  "last": "http://defichain-api.test/v1/masternode?page=9225",
                  "prev": null,
                  "next": "http://defichain-api.test/v1/masternode?page=2"
              },
              "meta": {
                  "current_page": 1,
                  "from": 1,
                  "last_page": 9225,
                  "path": "http://defichain-api.test/v1/masternode",
                  "per_page": 1,
                  "to": 1,
                  "total": 9225
              }
          }
        headers: []
        description: '200'
    responseFields: []
  -
    httpMethods:
      - GET
    uri: 'v1/masternode/{state}/all'
    metadata:
      title: 'Masternodes with requested state'
      description: |-
        Get all masternodes with the requested state
        <aside class="notice">possible states are <code>ENABLED, PRE_ENABLED, RESIGNED,
        PRE_RESIGNED and BANNED</code>.</aside>
        <aside class="warning">This request receives a big payload!</aside>
      authenticated: false
    headers:
      Content-Type: application/json
      Accept: application/json
    urlParameters:
      state:
        name: state
        description: 'Select all masternodes with the given state.'
        required: true
        example: resigned
        type: string
    queryParameters:
      stats:
        name: stats
        description: 'Get additional statistics. Default: <code>true</code>'
        required: false
        example: true
        type: boolean
      wtf:
        name: wtf
        description: 'Get explainations for all returned values. Default: <code>false</code>'
        required: false
        example: true
        type: boolean
    bodyParameters: []
    responses:
      -
        status: 200
        content: |
          {
              "data": [
                  {
                      "masternodeId": "b70f5273b64b1e48066a4a50d0e51de3cc883ddf96cbb1bb1999c073ed0af331",
                      "ownerAddress": "8RvqxbyS9yu2nEX6x28VexySd2WRNp22dn",
                      "operatorAddress": "8MU9MhdMBNmY4rWi2krWFjBLwRnDdTFfMt",
                      "state": "PRE_ENABLED",
                      "mintedBlocks": 0,
                      "timelock": null,
                      "targetMultiplier": [

                      ],
                      "creationHeight": 1272000,
                      "resignHeight": -1,
                      "resignTx": null,
                      "banTx": null
                  }
              ],
              "stats": {
                  "masternode_count": 19121,
                  "enabled_count": 9224,
                  "pre_enabled_count": 1,
                  "resigned_count": 9896,
                  "pre_resigned_count": 0,
                  "freezer": {
                      "unfrozen": 7470,
                      "5_year": 132,
                      "10_year": 1623
                  }
              },
              "links": {
                  "first": "http://defichain-api.test/v1/masternode/pre_enabled?page=1",
                  "last": "http://defichain-api.test/v1/masternode/pre_enabled?page=1",
                  "prev": null,
                  "next": null
              },
              "meta": {
                  "current_page": 1,
                  "from": 1,
                  "last_page": 1,
                  "path": "http://defichain-api.test/v1/masternode/pre_enabled",
                  "per_page": 1,
                  "to": 1,
                  "total": 1
              }
          }
        headers: []
        description: '200'
    responseFields: []
  -
    httpMethods:
      - GET
    uri: v1/masternode/with_inactive/all
    metadata:
      title: 'active Masternodes'
      description: |-
        Get all active masternodes, including the states ENABLED, PRE_ENABLED, RESIGNED, PRE_RESIGNED and BANNED
        <aside class="warning">This request receives a big payload!</aside>
      authenticated: false
    headers:
      Content-Type: application/json
      Accept: application/json
    urlParameters: []
    queryParameters:
      stats:
        name: stats
        description: 'Get additional statistics. Default: <code>true</code>'
        required: false
        example: true
        type: boolean
      wtf:
        name: wtf
        description: 'Get explainations for all returned values. Default: <code>false</code>'
        required: false
        example: true
        type: boolean
    bodyParameters: []
    responses:
      -
        status: 200
        content: |
          {
              "data": [
                  {
                      "masternodeId": "000cfd30703095554cbe369a60f5089b62bbee9442e11c8b5d769881bf535c1d",
                      "ownerAddress": "8MPzdvvBrZ4SLjy5Ymq37wKxYftECKjWa3",
                      "operatorAddress": "8e5qNykXzVqmSpTypDZynMQrkj5U3N59XD",
                      "state": "ENABLED",
                      "mintedBlocks": 68,
                      "timelock": null,
                      "targetMultiplier": [
                          10,
                          8
                      ],
                      "creationHeight": 684270,
                      "resignHeight": -1,
                      "resignTx": null,
                      "banTx": null
                  }
              ],
              "stats": {
                  "masternode_count": 19121,
                  "enabled_count": 9224,
                  "pre_enabled_count": 1,
                  "resigned_count": 9896,
                  "pre_resigned_count": 0,
                  "freezer": {
                      "unfrozen": 17366,
                      "5_year": 132,
                      "10_year": 1623
                  }
              },
              "wtf": {
                  "masternodeId": "The DeFiChain's internal unique identifier for this masternode. It consists of 65 hexadecimal characters (0..8, a..f)",
                  "ownerAddress": "A legacy address holding the masternode's collateral of 20,000 DFI. It consists of 35 latin and numeric characters(0..9, a..z, A..Z)",
                  "operatorAddress": "A legacy address, used for the masternode's operator. Typically living in the wallet of the DeFiChain node, running the minting activity of this masternode.",
                  "state": "Contains the masternode's states. Possible values: ENABLED, PRE-ENABLED, RESIGNED, PRE-RESIGNED, BANNED",
                  "mintedBlocks": "Integer value of the amount of blocks this Masternode has minted so far.",
                  "timelock": "A string telling this masternode's freezing time. Possible values: \"\", \"5-year\", \"10-year\"",
                  "targetMultiplier": "An array of integer values. Contains 2, 3 or 4 values, depending on this masternode's timelock",
                  "creationHeight": "The block height when this masternode has been created. Integer value.",
                  "resignHeight": "The block height when this masternode has been resigned. Integer value.",
                  "resignTx": "Transaction ID of the masternode's collateral payout after it has finally been resigned. It consists of 65 hexadecimal characters (0..8, a..f)",
                  "banTx": "Transaction ID of the masternode's collateral payout after it has been banned. It consists of 65 hexadecimal characters (0..8, a..f)"
              },
              "links": {
                  "first": "http://defichain-api.test/v1/masternode?page=1",
                  "last": "http://defichain-api.test/v1/masternode?page=9225",
                  "prev": null,
                  "next": "http://defichain-api.test/v1/masternode?page=2"
              },
              "meta": {
                  "current_page": 1,
                  "from": 1,
                  "last_page": 9225,
                  "path": "http://defichain-api.test/v1/masternode",
                  "per_page": 1,
                  "to": 1,
                  "total": 9225
              }
          }
        headers: []
        description: '200'
    responseFields: []
  -
    httpMethods:
      - GET
    uri: 'v1/masternode/address/{address}'
    metadata:
      title: 'Masternode by address'
      description: 'Get a masternode by a either the owner address, operator address or the masternode id.'
      authenticated: false
    headers:
      Content-Type: application/json
      Accept: application/json
    urlParameters:
      address:
        name: address
        description: 'either the owner address, operator address or the masternode id.'
        required: true
        example: 8MPzdvvBrZ4SLjy5Ymq37wKxYftECKjWa3
        type: string
    queryParameters:
      stats:
        name: stats
        description: 'Get additional statistics. Default: <code>true</code>'
        required: false
        example: true
        type: boolean
      wtf:
        name: wtf
        description: 'Get explainations for all returned values. Default: <code>false</code>'
        required: false
        example: true
        type: boolean
    bodyParameters: []
    responses:
      -
        status: 200
        content: |
          {
              "data": [
                  {
                      "masternodeId": "000cfd30703095554cbe369a60f5089b62bbee9442e11c8b5d769881bf535c1d",
                      "ownerAddress": "8MPzdvvBrZ4SLjy5Ymq37wKxYftECKjWa3",
                      "operatorAddress": "8e5qNykXzVqmSpTypDZynMQrkj5U3N59XD",
                      "state": "ENABLED",
                      "mintedBlocks": 68,
                      "timelock": null,
                      "targetMultiplier": [
                          10,
                          8
                      ],
                      "creationHeight": 684270,
                      "resignHeight": -1,
                      "resignTx": null,
                      "banTx": null
                  }
              ],
              "stats": {
                  "masternode_count": 19121,
                  "enabled_count": 9224,
                  "pre_enabled_count": 1,
                  "resigned_count": 9896,
                  "pre_resigned_count": 0,
                  "freezer": {
                      "unfrozen": 17366,
                      "5_year": 132,
                      "10_year": 1623
                  }
              },
              "wtf": {
                  "masternodeId": "The DeFiChain's internal unique identifier for this masternode. It consists of 65 hexadecimal characters (0..8, a..f)",
                  "ownerAddress": "A legacy address holding the masternode's collateral of 20,000 DFI. It consists of 35 latin and numeric characters(0..9, a..z, A..Z)",
                  "operatorAddress": "A legacy address, used for the masternode's operator. Typically living in the wallet of the DeFiChain node, running the minting activity of this masternode.",
                  "state": "Contains the masternode's states. Possible values: ENABLED, PRE-ENABLED, RESIGNED, PRE-RESIGNED, BANNED",
                  "mintedBlocks": "Integer value of the amount of blocks this Masternode has minted so far.",
                  "timelock": "A string telling this masternode's freezing time. Possible values: \"\", \"5-year\", \"10-year\"",
                  "targetMultiplier": "An array of integer values. Contains 2, 3 or 4 values, depending on this masternode's timelock",
                  "creationHeight": "The block height when this masternode has been created. Integer value.",
                  "resignHeight": "The block height when this masternode has been resigned. Integer value.",
                  "resignTx": "Transaction ID of the masternode's collateral payout after it has finally been resigned. It consists of 65 hexadecimal characters (0..8, a..f)",
                  "banTx": "Transaction ID of the masternode's collateral payout after it has been banned. It consists of 65 hexadecimal characters (0..8, a..f)"
              },
              "links": {
                  "first": "http://defichain-api.test/v1/masternode?page=1",
                  "last": "http://defichain-api.test/v1/masternode?page=9225",
                  "prev": null,
                  "next": "http://defichain-api.test/v1/masternode?page=2"
              },
              "meta": {
                  "current_page": 1,
                  "from": 1,
                  "last_page": 9225,
                  "path": "http://defichain-api.test/v1/masternode",
                  "per_page": 1,
                  "to": 1,
                  "total": 9225
              }
          }
        headers: []
        description: '200'
    responseFields: []
